<?xml version="1.0" encoding="utf-8"  standalone="no"?>
<!DOCTYPE svg PUBLIC "-//W3C//DTD SVG 1.1//EN"
 "http://www.w3.org/Graphics/SVG/1.1/DTD/svg11.dtd">
<svg 
 width="600" height="480"
 viewBox="0 0 600 480"
 xmlns="http://www.w3.org/2000/svg"
 xmlns:xlink="http://www.w3.org/1999/xlink"
>

<title>Gnuplot</title>
<desc>Produced by GNUPLOT 5.0 patchlevel 3 </desc>

<g id="gnuplot_canvas">

<rect x="0" y="0" width="600" height="480" fill="none"/>
<defs>

	<circle id='gpDot' r='0.5' stroke-width='0.5'/>
	<path id='gpPt0' stroke-width='0.244' stroke='currentColor' d='M-1,0 h2 M0,-1 v2'/>
	<path id='gpPt1' stroke-width='0.244' stroke='currentColor' d='M-1,-1 L1,1 M1,-1 L-1,1'/>
	<path id='gpPt2' stroke-width='0.244' stroke='currentColor' d='M-1,0 L1,0 M0,-1 L0,1 M-1,-1 L1,1 M-1,1 L1,-1'/>
	<rect id='gpPt3' stroke-width='0.244' stroke='currentColor' x='-1' y='-1' width='2' height='2'/>
	<rect id='gpPt4' stroke-width='0.244' stroke='currentColor' fill='currentColor' x='-1' y='-1' width='2' height='2'/>
	<circle id='gpPt5' stroke-width='0.244' stroke='currentColor' cx='0' cy='0' r='1'/>
	<use xlink:href='#gpPt5' id='gpPt6' fill='currentColor' stroke='none'/>
	<path id='gpPt7' stroke-width='0.244' stroke='currentColor' d='M0,-1.33 L-1.33,0.67 L1.33,0.67 z'/>
	<use xlink:href='#gpPt7' id='gpPt8' fill='currentColor' stroke='none'/>
	<use xlink:href='#gpPt7' id='gpPt9' stroke='currentColor' transform='rotate(180)'/>
	<use xlink:href='#gpPt9' id='gpPt10' fill='currentColor' stroke='none'/>
	<use xlink:href='#gpPt3' id='gpPt11' stroke='currentColor' transform='rotate(45)'/>
	<use xlink:href='#gpPt11' id='gpPt12' fill='currentColor' stroke='none'/>
	<path id='gpPt13' stroke-width='0.244' stroke='currentColor' d='M0,1.330 L1.265,0.411 L0.782,-1.067 L-0.782,-1.076 L-1.265,0.411 z'/>
	<use xlink:href='#gpPt13' id='gpPt14' fill='currentColor' stroke='none'/>
	<filter id='textbox' filterUnits='objectBoundingBox' x='0' y='0' height='1' width='1'>
	  <feFlood flood-color='white' flood-opacity='1' result='bgnd'/>
	  <feComposite in='SourceGraphic' in2='bgnd' operator='atop'/>
	</filter>
	<filter id='greybox' filterUnits='objectBoundingBox' x='0' y='0' height='1' width='1'>
	  <feFlood flood-color='lightgrey' flood-opacity='1' result='grey'/>
	  <feComposite in='SourceGraphic' in2='grey' operator='atop'/>
	</filter>
</defs>
<g fill="none" color="white" stroke="rgb(128, 128, 128)" stroke-width="1.00" stroke-linecap="butt" stroke-linejoin="miter">
</g>
<g fill="none" color="black" stroke="currentColor" stroke-width="1.00" stroke-linecap="butt" stroke-linejoin="miter">
</g>
<g fill="none" color="black" stroke="rgb(128, 128, 128)" stroke-width="0.25" stroke-linecap="butt" stroke-linejoin="miter">
</g>
<g fill="none" color="gray" stroke="currentColor" stroke-width="0.25" stroke-linecap="butt" stroke-linejoin="miter">
	<path stroke='rgb(128, 128, 128)' stroke-dasharray='2,4' class="gridline"  d='M120.8,362.0 L376.1,362.0  '/></g>
<g fill="none" color="gray" stroke="rgb(128, 128, 128)" stroke-width="1.00" stroke-linecap="butt" stroke-linejoin="miter">
</g>
<g fill="none" color="black" stroke="currentColor" stroke-width="1.00" stroke-linecap="butt" stroke-linejoin="miter">
	<path stroke='rgb(128, 128, 128)'  d='M120.8,362.0 L112.6,362.0  '/>	<g transform="translate(104.9,366.1)" stroke="none" fill="rgb(128,128,128)" font-family="Verdana" font-size="11.00"  text-anchor="end">
		<text><tspan font-family="Verdana" >0.00390625</tspan></text>
	</g>
</g>
<g fill="none" color="black" stroke="currentColor" stroke-width="1.00" stroke-linecap="butt" stroke-linejoin="miter">
	<path stroke='rgb(128, 128, 128)'  d='M120.8,340.7 L116.7,340.7  '/></g>
<g fill="none" color="black" stroke="rgb(128, 128, 128)" stroke-width="0.25" stroke-linecap="butt" stroke-linejoin="miter">
</g>
<g fill="none" color="gray" stroke="currentColor" stroke-width="0.25" stroke-linecap="butt" stroke-linejoin="miter">
	<path stroke='rgb(128, 128, 128)' stroke-dasharray='2,4' class="gridline"  d='M120.8,319.4 L376.1,319.4  '/></g>
<g fill="none" color="gray" stroke="rgb(128, 128, 128)" stroke-width="1.00" stroke-linecap="butt" stroke-linejoin="miter">
</g>
<g fill="none" color="black" stroke="currentColor" stroke-width="1.00" stroke-linecap="butt" stroke-linejoin="miter">
	<path stroke='rgb(128, 128, 128)'  d='M120.8,319.4 L112.6,319.4  '/>	<g transform="translate(104.9,323.5)" stroke="none" fill="rgb(128,128,128)" font-family="Verdana" font-size="11.00"  text-anchor="end">
		<text><tspan font-family="Verdana" >0.015625</tspan></text>
	</g>
</g>
<g fill="none" color="black" stroke="currentColor" stroke-width="1.00" stroke-linecap="butt" stroke-linejoin="miter">
	<path stroke='rgb(128, 128, 128)'  d='M120.8,298.2 L116.7,298.2  '/></g>
<g fill="none" color="black" stroke="rgb(128, 128, 128)" stroke-width="0.25" stroke-linecap="butt" stroke-linejoin="miter">
</g>
<g fill="none" color="gray" stroke="currentColor" stroke-width="0.25" stroke-linecap="butt" stroke-linejoin="miter">
	<path stroke='rgb(128, 128, 128)' stroke-dasharray='2,4' class="gridline"  d='M120.8,276.9 L376.1,276.9  '/></g>
<g fill="none" color="gray" stroke="rgb(128, 128, 128)" stroke-width="1.00" stroke-linecap="butt" stroke-linejoin="miter">
</g>
<g fill="none" color="black" stroke="currentColor" stroke-width="1.00" stroke-linecap="butt" stroke-linejoin="miter">
	<path stroke='rgb(128, 128, 128)'  d='M120.8,276.9 L112.6,276.9  '/>	<g transform="translate(104.9,281.0)" stroke="none" fill="rgb(128,128,128)" font-family="Verdana" font-size="11.00"  text-anchor="end">
		<text><tspan font-family="Verdana" >0.0625</tspan></text>
	</g>
</g>
<g fill="none" color="black" stroke="currentColor" stroke-width="1.00" stroke-linecap="butt" stroke-linejoin="miter">
	<path stroke='rgb(128, 128, 128)'  d='M120.8,255.6 L116.7,255.6  '/></g>
<g fill="none" color="black" stroke="rgb(128, 128, 128)" stroke-width="0.25" stroke-linecap="butt" stroke-linejoin="miter">
</g>
<g fill="none" color="gray" stroke="currentColor" stroke-width="0.25" stroke-linecap="butt" stroke-linejoin="miter">
	<path stroke='rgb(128, 128, 128)' stroke-dasharray='2,4' class="gridline"  d='M120.8,234.3 L376.1,234.3  '/></g>
<g fill="none" color="gray" stroke="rgb(128, 128, 128)" stroke-width="1.00" stroke-linecap="butt" stroke-linejoin="miter">
</g>
<g fill="none" color="black" stroke="currentColor" stroke-width="1.00" stroke-linecap="butt" stroke-linejoin="miter">
	<path stroke='rgb(128, 128, 128)'  d='M120.8,234.3 L112.6,234.3  '/>	<g transform="translate(104.9,238.4)" stroke="none" fill="rgb(128,128,128)" font-family="Verdana" font-size="11.00"  text-anchor="end">
		<text><tspan font-family="Verdana" >0.25</tspan></text>
	</g>
</g>
<g fill="none" color="black" stroke="currentColor" stroke-width="1.00" stroke-linecap="butt" stroke-linejoin="miter">
	<path stroke='rgb(128, 128, 128)'  d='M120.8,213.1 L116.7,213.1  '/></g>
<g fill="none" color="black" stroke="rgb(128, 128, 128)" stroke-width="0.25" stroke-linecap="butt" stroke-linejoin="miter">
</g>
<g fill="none" color="gray" stroke="currentColor" stroke-width="0.25" stroke-linecap="butt" stroke-linejoin="miter">
	<path stroke='rgb(128, 128, 128)' stroke-dasharray='2,4' class="gridline"  d='M120.8,191.8 L376.1,191.8  '/></g>
<g fill="none" color="gray" stroke="rgb(128, 128, 128)" stroke-width="1.00" stroke-linecap="butt" stroke-linejoin="miter">
</g>
<g fill="none" color="black" stroke="currentColor" stroke-width="1.00" stroke-linecap="butt" stroke-linejoin="miter">
	<path stroke='rgb(128, 128, 128)'  d='M120.8,191.8 L112.6,191.8  '/>	<g transform="translate(104.9,195.9)" stroke="none" fill="rgb(128,128,128)" font-family="Verdana" font-size="11.00"  text-anchor="end">
		<text><tspan font-family="Verdana" >1</tspan></text>
	</g>
</g>
<g fill="none" color="black" stroke="currentColor" stroke-width="1.00" stroke-linecap="butt" stroke-linejoin="miter">
	<path stroke='rgb(128, 128, 128)'  d='M120.8,170.5 L116.7,170.5  '/></g>
<g fill="none" color="black" stroke="rgb(128, 128, 128)" stroke-width="0.25" stroke-linecap="butt" stroke-linejoin="miter">
</g>
<g fill="none" color="gray" stroke="currentColor" stroke-width="0.25" stroke-linecap="butt" stroke-linejoin="miter">
	<path stroke='rgb(128, 128, 128)' stroke-dasharray='2,4' class="gridline"  d='M120.8,149.2 L376.1,149.2  '/></g>
<g fill="none" color="gray" stroke="rgb(128, 128, 128)" stroke-width="1.00" stroke-linecap="butt" stroke-linejoin="miter">
</g>
<g fill="none" color="black" stroke="currentColor" stroke-width="1.00" stroke-linecap="butt" stroke-linejoin="miter">
	<path stroke='rgb(128, 128, 128)'  d='M120.8,149.2 L112.6,149.2  '/>	<g transform="translate(104.9,153.3)" stroke="none" fill="rgb(128,128,128)" font-family="Verdana" font-size="11.00"  text-anchor="end">
		<text><tspan font-family="Verdana" >4</tspan></text>
	</g>
</g>
<g fill="none" color="black" stroke="currentColor" stroke-width="1.00" stroke-linecap="butt" stroke-linejoin="miter">
	<path stroke='rgb(128, 128, 128)'  d='M120.8,128.0 L116.7,128.0  '/></g>
<g fill="none" color="black" stroke="rgb(128, 128, 128)" stroke-width="0.25" stroke-linecap="butt" stroke-linejoin="miter">
</g>
<g fill="none" color="gray" stroke="currentColor" stroke-width="0.25" stroke-linecap="butt" stroke-linejoin="miter">
	<path stroke='rgb(128, 128, 128)' stroke-dasharray='2,4' class="gridline"  d='M120.8,106.7 L376.1,106.7  '/></g>
<g fill="none" color="gray" stroke="rgb(128, 128, 128)" stroke-width="1.00" stroke-linecap="butt" stroke-linejoin="miter">
</g>
<g fill="none" color="black" stroke="currentColor" stroke-width="1.00" stroke-linecap="butt" stroke-linejoin="miter">
	<path stroke='rgb(128, 128, 128)'  d='M120.8,106.7 L112.6,106.7  '/>	<g transform="translate(104.9,110.8)" stroke="none" fill="rgb(128,128,128)" font-family="Verdana" font-size="11.00"  text-anchor="end">
		<text><tspan font-family="Verdana" >16</tspan></text>
	</g>
</g>
<g fill="none" color="black" stroke="currentColor" stroke-width="1.00" stroke-linecap="butt" stroke-linejoin="miter">
</g>
<g fill="none" color="black" stroke="rgb(128, 128, 128)" stroke-width="0.25" stroke-linecap="butt" stroke-linejoin="miter">
</g>
<g fill="none" color="gray" stroke="currentColor" stroke-width="0.25" stroke-linecap="butt" stroke-linejoin="miter">
	<path stroke='rgb(128, 128, 128)' stroke-dasharray='2,4' class="gridline"  d='M120.8,362.0 L120.8,106.7  '/></g>
<g fill="none" color="gray" stroke="rgb(128, 128, 128)" stroke-width="1.00" stroke-linecap="butt" stroke-linejoin="miter">
</g>
<g fill="none" color="black" stroke="currentColor" stroke-width="1.00" stroke-linecap="butt" stroke-linejoin="miter">
	<path stroke='rgb(128, 128, 128)'  d='M120.8,362.0 L120.8,370.2  '/>	<g transform="translate(120.8,390.7)" stroke="none" fill="rgb(128,128,128)" font-family="Verdana" font-size="11.00"  text-anchor="middle">
		<text><tspan font-family="Verdana" > 1</tspan></text>
	</g>
</g>
<g fill="none" color="black" stroke="currentColor" stroke-width="1.00" stroke-linecap="butt" stroke-linejoin="miter">
</g>
<g fill="none" color="black" stroke="rgb(128, 128, 128)" stroke-width="0.25" stroke-linecap="butt" stroke-linejoin="miter">
</g>
<g fill="none" color="gray" stroke="currentColor" stroke-width="0.25" stroke-linecap="butt" stroke-linejoin="miter">
	<path stroke='rgb(128, 128, 128)' stroke-dasharray='2,4' class="gridline"  d='M176.5,362.0 L176.5,106.7  '/></g>
<g fill="none" color="gray" stroke="rgb(128, 128, 128)" stroke-width="1.00" stroke-linecap="butt" stroke-linejoin="miter">
</g>
<g fill="none" color="black" stroke="currentColor" stroke-width="1.00" stroke-linecap="butt" stroke-linejoin="miter">
	<path stroke='rgb(128, 128, 128)'  d='M176.5,362.0 L176.5,370.2  '/>	<g transform="translate(176.5,390.7)" stroke="none" fill="rgb(128,128,128)" font-family="Verdana" font-size="11.00"  text-anchor="middle">
		<text><tspan font-family="Verdana" > 2</tspan></text>
	</g>
</g>
<g fill="none" color="black" stroke="currentColor" stroke-width="1.00" stroke-linecap="butt" stroke-linejoin="miter">
</g>
<g fill="none" color="black" stroke="rgb(128, 128, 128)" stroke-width="0.25" stroke-linecap="butt" stroke-linejoin="miter">
</g>
<g fill="none" color="gray" stroke="currentColor" stroke-width="0.25" stroke-linecap="butt" stroke-linejoin="miter">
	<path stroke='rgb(128, 128, 128)' stroke-dasharray='2,4' class="gridline"  d='M232.2,362.0 L232.2,106.7  '/></g>
<g fill="none" color="gray" stroke="rgb(128, 128, 128)" stroke-width="1.00" stroke-linecap="butt" stroke-linejoin="miter">
</g>
<g fill="none" color="black" stroke="currentColor" stroke-width="1.00" stroke-linecap="butt" stroke-linejoin="miter">
	<path stroke='rgb(128, 128, 128)'  d='M232.2,362.0 L232.2,370.2  '/>	<g transform="translate(232.2,390.7)" stroke="none" fill="rgb(128,128,128)" font-family="Verdana" font-size="11.00"  text-anchor="middle">
		<text><tspan font-family="Verdana" > 4</tspan></text>
	</g>
</g>
<g fill="none" color="black" stroke="currentColor" stroke-width="1.00" stroke-linecap="butt" stroke-linejoin="miter">
</g>
<g fill="none" color="black" stroke="rgb(128, 128, 128)" stroke-width="0.25" stroke-linecap="butt" stroke-linejoin="miter">
</g>
<g fill="none" color="gray" stroke="currentColor" stroke-width="0.25" stroke-linecap="butt" stroke-linejoin="miter">
	<path stroke='rgb(128, 128, 128)' stroke-dasharray='2,4' class="gridline"  d='M264.7,362.0 L264.7,106.7  '/></g>
<g fill="none" color="gray" stroke="rgb(128, 128, 128)" stroke-width="1.00" stroke-linecap="butt" stroke-linejoin="miter">
</g>
<g fill="none" color="black" stroke="currentColor" stroke-width="1.00" stroke-linecap="butt" stroke-linejoin="miter">
	<path stroke='rgb(128, 128, 128)'  d='M264.7,362.0 L264.7,370.2  '/>	<g transform="translate(264.7,390.7)" stroke="none" fill="rgb(128,128,128)" font-family="Verdana" font-size="11.00"  text-anchor="middle">
		<text><tspan font-family="Verdana" > 6</tspan></text>
	</g>
</g>
<g fill="none" color="black" stroke="currentColor" stroke-width="1.00" stroke-linecap="butt" stroke-linejoin="miter">
</g>
<g fill="none" color="black" stroke="rgb(128, 128, 128)" stroke-width="0.25" stroke-linecap="butt" stroke-linejoin="miter">
</g>
<g fill="none" color="gray" stroke="currentColor" stroke-width="0.25" stroke-linecap="butt" stroke-linejoin="miter">
	<path stroke='rgb(128, 128, 128)' stroke-dasharray='2,4' class="gridline"  d='M287.8,362.0 L287.8,106.7  '/></g>
<g fill="none" color="gray" stroke="rgb(128, 128, 128)" stroke-width="1.00" stroke-linecap="butt" stroke-linejoin="miter">
</g>
<g fill="none" color="black" stroke="currentColor" stroke-width="1.00" stroke-linecap="butt" stroke-linejoin="miter">
	<path stroke='rgb(128, 128, 128)'  d='M287.8,362.0 L287.8,370.2  '/>	<g transform="translate(287.8,390.7)" stroke="none" fill="rgb(128,128,128)" font-family="Verdana" font-size="11.00"  text-anchor="middle">
		<text><tspan font-family="Verdana" > 8</tspan></text>
	</g>
</g>
<g fill="none" color="black" stroke="currentColor" stroke-width="1.00" stroke-linecap="butt" stroke-linejoin="miter">
</g>
<g fill="none" color="black" stroke="rgb(128, 128, 128)" stroke-width="0.25" stroke-linecap="butt" stroke-linejoin="miter">
</g>
<g fill="none" color="gray" stroke="currentColor" stroke-width="0.25" stroke-linecap="butt" stroke-linejoin="miter">
	<path stroke='rgb(128, 128, 128)' stroke-dasharray='2,4' class="gridline"  d='M320.4,362.0 L320.4,106.7  '/></g>
<g fill="none" color="gray" stroke="rgb(128, 128, 128)" stroke-width="1.00" stroke-linecap="butt" stroke-linejoin="miter">
</g>
<g fill="none" color="black" stroke="currentColor" stroke-width="1.00" stroke-linecap="butt" stroke-linejoin="miter">
	<path stroke='rgb(128, 128, 128)'  d='M320.4,362.0 L320.4,370.2  '/>	<g transform="translate(320.4,390.7)" stroke="none" fill="rgb(128,128,128)" font-family="Verdana" font-size="11.00"  text-anchor="middle">
		<text><tspan font-family="Verdana" > 12</tspan></text>
	</g>
</g>
<g fill="none" color="black" stroke="currentColor" stroke-width="1.00" stroke-linecap="butt" stroke-linejoin="miter">
</g>
<g fill="none" color="black" stroke="rgb(128, 128, 128)" stroke-width="0.25" stroke-linecap="butt" stroke-linejoin="miter">
</g>
<g fill="none" color="gray" stroke="currentColor" stroke-width="0.25" stroke-linecap="butt" stroke-linejoin="miter">
	<path stroke='rgb(128, 128, 128)' stroke-dasharray='2,4' class="gridline"  d='M343.5,362.0 L343.5,106.7  '/></g>
<g fill="none" color="gray" stroke="rgb(128, 128, 128)" stroke-width="1.00" stroke-linecap="butt" stroke-linejoin="miter">
</g>
<g fill="none" color="black" stroke="currentColor" stroke-width="1.00" stroke-linecap="butt" stroke-linejoin="miter">
	<path stroke='rgb(128, 128, 128)'  d='M343.5,362.0 L343.5,370.2  '/>	<g transform="translate(343.5,390.7)" stroke="none" fill="rgb(128,128,128)" font-family="Verdana" font-size="11.00"  text-anchor="middle">
		<text><tspan font-family="Verdana" > 16</tspan></text>
	</g>
</g>
<g fill="none" color="black" stroke="currentColor" stroke-width="1.00" stroke-linecap="butt" stroke-linejoin="miter">
</g>
<g fill="none" color="black" stroke="rgb(128, 128, 128)" stroke-width="0.25" stroke-linecap="butt" stroke-linejoin="miter">
</g>
<g fill="none" color="gray" stroke="currentColor" stroke-width="0.25" stroke-linecap="butt" stroke-linejoin="miter">
	<path stroke='rgb(128, 128, 128)' stroke-dasharray='2,4' class="gridline"  d='M361.5,362.0 L361.5,106.7  '/></g>
<g fill="none" color="gray" stroke="rgb(128, 128, 128)" stroke-width="1.00" stroke-linecap="butt" stroke-linejoin="miter">
</g>
<g fill="none" color="black" stroke="currentColor" stroke-width="1.00" stroke-linecap="butt" stroke-linejoin="miter">
	<path stroke='rgb(128, 128, 128)'  d='M361.5,362.0 L361.5,370.2  '/>	<g transform="translate(361.5,390.7)" stroke="none" fill="rgb(128,128,128)" font-family="Verdana" font-size="11.00"  text-anchor="middle">
		<text><tspan font-family="Verdana" > 20</tspan></text>
	</g>
</g>
<g fill="none" color="black" stroke="currentColor" stroke-width="1.00" stroke-linecap="butt" stroke-linejoin="miter">
</g>
<g fill="none" color="black" stroke="rgb(128, 128, 128)" stroke-width="0.25" stroke-linecap="butt" stroke-linejoin="miter">
</g>
<g fill="none" color="gray" stroke="currentColor" stroke-width="0.25" stroke-linecap="butt" stroke-linejoin="miter">
	<path stroke='rgb(128, 128, 128)' stroke-dasharray='2,4' class="gridline"  d='M376.1,362.0 L376.1,106.7  '/></g>
<g fill="none" color="gray" stroke="rgb(128, 128, 128)" stroke-width="1.00" stroke-linecap="butt" stroke-linejoin="miter">
</g>
<g fill="none" color="black" stroke="currentColor" stroke-width="1.00" stroke-linecap="butt" stroke-linejoin="miter">
	<path stroke='rgb(128, 128, 128)'  d='M376.1,362.0 L376.1,370.2  '/>	<g transform="translate(376.1,390.7)" stroke="none" fill="rgb(128,128,128)" font-family="Verdana" font-size="11.00"  text-anchor="middle">
		<text><tspan font-family="Verdana" > 24</tspan></text>
	</g>
</g>
<g fill="none" color="black" stroke="currentColor" stroke-width="1.00" stroke-linecap="butt" stroke-linejoin="miter">
</g>
<g fill="none" color="black" stroke="currentColor" stroke-width="1.00" stroke-linecap="butt" stroke-linejoin="miter">
	<path stroke='rgb(128, 128, 128)'  d='M120.8,106.7 L120.8,362.0 L376.1,362.0 M376.1,106.7 M120.8,106.7  '/></g>
<g fill="none" color="black" stroke="currentColor" stroke-width="1.00" stroke-linecap="butt" stroke-linejoin="miter">
	<g transform="translate(16.1,234.4) rotate(270)" stroke="none" fill="black" font-family="Verdana" font-size="11.00"  text-anchor="middle">
		<text><tspan font-family="Verdana" >Iteration time [ms]</tspan></text>
	</g>
</g>
<g fill="none" color="black" stroke="currentColor" stroke-width="1.00" stroke-linecap="butt" stroke-linejoin="miter">
	<g transform="translate(248.4,415.3)" stroke="none" fill="black" font-family="Verdana" font-size="11.00"  text-anchor="middle">
		<text><tspan font-family="Verdana" >Number of threads</tspan></text>
	</g>
</g>
<g fill="none" color="black" stroke="currentColor" stroke-width="1.00" stroke-linecap="butt" stroke-linejoin="miter">
	<g transform="translate(248.4,86.2)" stroke="none" fill="black" font-family="Verdana" font-size="11.00"  text-anchor="middle">
		<text><tspan font-family="Verdana" >Strong scaling on Salomon</tspan></text>
	</g>
</g>
	<g id="gnuplot_plot_1" ><title>642 non-overlapped</title>
<g fill="none" color="black" stroke="currentColor" stroke-width="1.00" stroke-linecap="butt" stroke-linejoin="miter">
	<g transform="translate(445.9,312.3)" stroke="none" fill="black" font-family="Verdana" font-size="11.00"  text-anchor="start">
		<text><tspan font-family="Verdana" >64</tspan><tspan font-family="Verdana"  font-size="8.8" dy="-5.50px">2</tspan><tspan font-family="Verdana"  font-size="11.0" dy="5.50px"> non-overlapped</tspan></text>
	</g>
</g>
<g fill="none" color="black" stroke="currentColor" stroke-width="1.00" stroke-linecap="butt" stroke-linejoin="miter">
	<path stroke='rgb(148,   0, 211)' stroke-dasharray='1.0,2.0'  d='M399.2,308.2 L438.2,308.2 M120.8,300.3 L176.5,309.8 L232.2,320.3 L264.7,322.9 L287.8,322.8 L320.4,323.9
		L343.5,315.0 L361.5,311.1 L376.1,307.9  '/>	<use xlink:href='#gpPt7' transform='translate(120.8,300.3) scale(3.08)' color='rgb(148,   0, 211)'/>
	<use xlink:href='#gpPt7' transform='translate(176.5,309.8) scale(3.08)' color='rgb(148,   0, 211)'/>
	<use xlink:href='#gpPt7' transform='translate(232.2,320.3) scale(3.08)' color='rgb(148,   0, 211)'/>
	<use xlink:href='#gpPt7' transform='translate(264.7,322.9) scale(3.08)' color='rgb(148,   0, 211)'/>
	<use xlink:href='#gpPt7' transform='translate(287.8,322.8) scale(3.08)' color='rgb(148,   0, 211)'/>
	<use xlink:href='#gpPt7' transform='translate(320.4,323.9) scale(3.08)' color='rgb(148,   0, 211)'/>
	<use xlink:href='#gpPt7' transform='translate(343.5,315.0) scale(3.08)' color='rgb(148,   0, 211)'/>
	<use xlink:href='#gpPt7' transform='translate(361.5,311.1) scale(3.08)' color='rgb(148,   0, 211)'/>
	<use xlink:href='#gpPt7' transform='translate(376.1,307.9) scale(3.08)' color='rgb(148,   0, 211)'/>
	<use xlink:href='#gpPt7' transform='translate(418.7,308.2) scale(3.08)' color='rgb(148,   0, 211)'/>
</g>
	</g>
	<g id="gnuplot_plot_2" ><title>642 overlapped</title>
<g fill="none" color="black" stroke="currentColor" stroke-width="1.00" stroke-linecap="butt" stroke-linejoin="miter">
	<g transform="translate(445.9,295.9)" stroke="none" fill="black" font-family="Verdana" font-size="11.00"  text-anchor="start">
		<text><tspan font-family="Verdana" >64</tspan><tspan font-family="Verdana"  font-size="8.8" dy="-5.50px">2</tspan><tspan font-family="Verdana"  font-size="11.0" dy="5.50px"> overlapped</tspan></text>
	</g>
</g>
<g fill="none" color="black" stroke="currentColor" stroke-width="1.00" stroke-linecap="butt" stroke-linejoin="miter">
	<path stroke='rgb(148,   0, 211)'  d='M399.2,291.8 L438.2,291.8 M176.5,302.3 L232.2,328.7 L264.7,335.4 L287.8,336.3 L320.4,338.1 L343.5,324.7
		L361.5,317.4 L376.1,312.8  '/>	<use xlink:href='#gpPt8' transform='translate(176.5,302.3) scale(3.08)' color='rgb(148,   0, 211)'/>
	<use xlink:href='#gpPt8' transform='translate(232.2,328.7) scale(3.08)' color='rgb(148,   0, 211)'/>
	<use xlink:href='#gpPt8' transform='translate(264.7,335.4) scale(3.08)' color='rgb(148,   0, 211)'/>
	<use xlink:href='#gpPt8' transform='translate(287.8,336.3) scale(3.08)' color='rgb(148,   0, 211)'/>
	<use xlink:href='#gpPt8' transform='translate(320.4,338.1) scale(3.08)' color='rgb(148,   0, 211)'/>
	<use xlink:href='#gpPt8' transform='translate(343.5,324.7) scale(3.08)' color='rgb(148,   0, 211)'/>
	<use xlink:href='#gpPt8' transform='translate(361.5,317.4) scale(3.08)' color='rgb(148,   0, 211)'/>
	<use xlink:href='#gpPt8' transform='translate(376.1,312.8) scale(3.08)' color='rgb(148,   0, 211)'/>
	<use xlink:href='#gpPt8' transform='translate(418.7,291.8) scale(3.08)' color='rgb(148,   0, 211)'/>
</g>
	</g>
	<g id="gnuplot_plot_3" ><title>1282 non-overlapped</title>
<g fill="none" color="black" stroke="currentColor" stroke-width="1.00" stroke-linecap="butt" stroke-linejoin="miter">
	<g transform="translate(445.9,279.5)" stroke="none" fill="black" font-family="Verdana" font-size="11.00"  text-anchor="start">
		<text><tspan font-family="Verdana" >128</tspan><tspan font-family="Verdana"  font-size="8.8" dy="-5.50px">2</tspan><tspan font-family="Verdana"  font-size="11.0" dy="5.50px"> non-overlapped</tspan></text>
	</g>
</g>
<g fill="none" color="black" stroke="currentColor" stroke-width="1.00" stroke-linecap="butt" stroke-linejoin="miter">
	<path stroke='rgb(  0,   0, 255)' stroke-dasharray='1.0,2.0'  d='M399.2,275.4 L438.2,275.4 M120.8,260.0 L176.5,272.9 L232.2,289.6 L264.7,297.1 L287.8,300.7 L320.4,306.0
		L343.5,303.0 L361.5,303.6 L376.1,299.4  '/>	<use xlink:href='#gpPt5' transform='translate(120.8,260.0) scale(3.08)' color='rgb(  0,   0, 255)'/>
	<use xlink:href='#gpPt5' transform='translate(176.5,272.9) scale(3.08)' color='rgb(  0,   0, 255)'/>
	<use xlink:href='#gpPt5' transform='translate(232.2,289.6) scale(3.08)' color='rgb(  0,   0, 255)'/>
	<use xlink:href='#gpPt5' transform='translate(264.7,297.1) scale(3.08)' color='rgb(  0,   0, 255)'/>
	<use xlink:href='#gpPt5' transform='translate(287.8,300.7) scale(3.08)' color='rgb(  0,   0, 255)'/>
	<use xlink:href='#gpPt5' transform='translate(320.4,306.0) scale(3.08)' color='rgb(  0,   0, 255)'/>
	<use xlink:href='#gpPt5' transform='translate(343.5,303.0) scale(3.08)' color='rgb(  0,   0, 255)'/>
	<use xlink:href='#gpPt5' transform='translate(361.5,303.6) scale(3.08)' color='rgb(  0,   0, 255)'/>
	<use xlink:href='#gpPt5' transform='translate(376.1,299.4) scale(3.08)' color='rgb(  0,   0, 255)'/>
	<use xlink:href='#gpPt5' transform='translate(418.7,275.4) scale(3.08)' color='rgb(  0,   0, 255)'/>
</g>
	</g>
	<g id="gnuplot_plot_4" ><title>1282 overlapped</title>
<g fill="none" color="black" stroke="currentColor" stroke-width="1.00" stroke-linecap="butt" stroke-linejoin="miter">
	<g transform="translate(445.9,263.1)" stroke="none" fill="black" font-family="Verdana" font-size="11.00"  text-anchor="start">
		<text><tspan font-family="Verdana" >128</tspan><tspan font-family="Verdana"  font-size="8.8" dy="-5.50px">2</tspan><tspan font-family="Verdana"  font-size="11.0" dy="5.50px"> overlapped</tspan></text>
	</g>
</g>
<g fill="none" color="black" stroke="currentColor" stroke-width="1.00" stroke-linecap="butt" stroke-linejoin="miter">
	<path stroke='rgb(  0,   0, 255)'  d='M399.2,259.0 L438.2,259.0 M176.5,257.4 L232.2,289.4 L264.7,302.4 L287.8,310.2 L320.4,317.0 L343.5,311.9
		L361.5,313.3 L376.1,309.3  '/>	<use xlink:href='#gpPt6' transform='translate(176.5,257.4) scale(3.08)' color='rgb(  0,   0, 255)'/>
	<use xlink:href='#gpPt6' transform='translate(232.2,289.4) scale(3.08)' color='rgb(  0,   0, 255)'/>
	<use xlink:href='#gpPt6' transform='translate(264.7,302.4) scale(3.08)' color='rgb(  0,   0, 255)'/>
	<use xlink:href='#gpPt6' transform='translate(287.8,310.2) scale(3.08)' color='rgb(  0,   0, 255)'/>
	<use xlink:href='#gpPt6' transform='translate(320.4,317.0) scale(3.08)' color='rgb(  0,   0, 255)'/>
	<use xlink:href='#gpPt6' transform='translate(343.5,311.9) scale(3.08)' color='rgb(  0,   0, 255)'/>
	<use xlink:href='#gpPt6' transform='translate(361.5,313.3) scale(3.08)' color='rgb(  0,   0, 255)'/>
	<use xlink:href='#gpPt6' transform='translate(376.1,309.3) scale(3.08)' color='rgb(  0,   0, 255)'/>
	<use xlink:href='#gpPt6' transform='translate(418.7,259.0) scale(3.08)' color='rgb(  0,   0, 255)'/>
</g>
	</g>
	<g id="gnuplot_plot_5" ><title>2562 non-overlapped</title>
<g fill="none" color="black" stroke="currentColor" stroke-width="1.00" stroke-linecap="butt" stroke-linejoin="miter">
	<g transform="translate(445.9,246.7)" stroke="none" fill="black" font-family="Verdana" font-size="11.00"  text-anchor="start">
		<text><tspan font-family="Verdana" >256</tspan><tspan font-family="Verdana"  font-size="8.8" dy="-5.50px">2</tspan><tspan font-family="Verdana"  font-size="11.0" dy="5.50px"> non-overlapped</tspan></text>
	</g>
</g>
<g fill="none" color="black" stroke="currentColor" stroke-width="1.00" stroke-linecap="butt" stroke-linejoin="miter">
	<path stroke='rgb(  0, 100,   0)' stroke-dasharray='1.0,2.0'  d='M399.2,242.6 L438.2,242.6 M120.8,218.2 L176.5,231.9 L232.2,251.4 L264.7,261.3 L287.8,267.5 L320.4,276.8
		L343.5,278.6 L361.5,282.5 L376.1,281.7  '/>	<use xlink:href='#gpPt11' transform='translate(120.8,218.2) scale(3.08)' color='rgb(  0, 100,   0)'/>
	<use xlink:href='#gpPt11' transform='translate(176.5,231.9) scale(3.08)' color='rgb(  0, 100,   0)'/>
	<use xlink:href='#gpPt11' transform='translate(232.2,251.4) scale(3.08)' color='rgb(  0, 100,   0)'/>
	<use xlink:href='#gpPt11' transform='translate(264.7,261.3) scale(3.08)' color='rgb(  0, 100,   0)'/>
	<use xlink:href='#gpPt11' transform='translate(287.8,267.5) scale(3.08)' color='rgb(  0, 100,   0)'/>
	<use xlink:href='#gpPt11' transform='translate(320.4,276.8) scale(3.08)' color='rgb(  0, 100,   0)'/>
	<use xlink:href='#gpPt11' transform='translate(343.5,278.6) scale(3.08)' color='rgb(  0, 100,   0)'/>
	<use xlink:href='#gpPt11' transform='translate(361.5,282.5) scale(3.08)' color='rgb(  0, 100,   0)'/>
	<use xlink:href='#gpPt11' transform='translate(376.1,281.7) scale(3.08)' color='rgb(  0, 100,   0)'/>
	<use xlink:href='#gpPt11' transform='translate(418.7,242.6) scale(3.08)' color='rgb(  0, 100,   0)'/>
</g>
	</g>
	<g id="gnuplot_plot_6" ><title>2562 overlapped</title>
<g fill="none" color="black" stroke="currentColor" stroke-width="1.00" stroke-linecap="butt" stroke-linejoin="miter">
	<g transform="translate(445.9,230.3)" stroke="none" fill="black" font-family="Verdana" font-size="11.00"  text-anchor="start">
		<text><tspan font-family="Verdana" >256</tspan><tspan font-family="Verdana"  font-size="8.8" dy="-5.50px">2</tspan><tspan font-family="Verdana"  font-size="11.0" dy="5.50px"> overlapped</tspan></text>
	</g>
</g>
<g fill="none" color="black" stroke="currentColor" stroke-width="1.00" stroke-linecap="butt" stroke-linejoin="miter">
	<path stroke='rgb(  0, 100,   0)'  d='M399.2,226.2 L438.2,226.2 M176.5,214.0 L232.2,247.4 L264.7,262.3 L287.8,271.9 L320.4,284.2 L343.5,286.4
		L361.5,291.5 L376.1,291.7  '/>	<use xlink:href='#gpPt12' transform='translate(176.5,214.0) scale(3.08)' color='rgb(  0, 100,   0)'/>
	<use xlink:href='#gpPt12' transform='translate(232.2,247.4) scale(3.08)' color='rgb(  0, 100,   0)'/>
	<use xlink:href='#gpPt12' transform='translate(264.7,262.3) scale(3.08)' color='rgb(  0, 100,   0)'/>
	<use xlink:href='#gpPt12' transform='translate(287.8,271.9) scale(3.08)' color='rgb(  0, 100,   0)'/>
	<use xlink:href='#gpPt12' transform='translate(320.4,284.2) scale(3.08)' color='rgb(  0, 100,   0)'/>
	<use xlink:href='#gpPt12' transform='translate(343.5,286.4) scale(3.08)' color='rgb(  0, 100,   0)'/>
	<use xlink:href='#gpPt12' transform='translate(361.5,291.5) scale(3.08)' color='rgb(  0, 100,   0)'/>
	<use xlink:href='#gpPt12' transform='translate(376.1,291.7) scale(3.08)' color='rgb(  0, 100,   0)'/>
	<use xlink:href='#gpPt12' transform='translate(418.7,226.2) scale(3.08)' color='rgb(  0, 100,   0)'/>
</g>
	</g>
	<g id="gnuplot_plot_7" ><title>5122 non-overlapped</title>
<g fill="none" color="black" stroke="currentColor" stroke-width="1.00" stroke-linecap="butt" stroke-linejoin="miter">
	<g transform="translate(445.9,213.9)" stroke="none" fill="black" font-family="Verdana" font-size="11.00"  text-anchor="start">
		<text><tspan font-family="Verdana" >512</tspan><tspan font-family="Verdana"  font-size="8.8" dy="-5.50px">2</tspan><tspan font-family="Verdana"  font-size="11.0" dy="5.50px"> non-overlapped</tspan></text>
	</g>
</g>
<g fill="none" color="black" stroke="currentColor" stroke-width="1.00" stroke-linecap="butt" stroke-linejoin="miter">
	<path stroke='rgb(255, 140,   0)' stroke-dasharray='1.0,2.0'  d='M399.2,209.8 L438.2,209.8 M120.8,170.1 L176.5,182.5 L232.2,203.0 L264.7,214.0 L287.8,221.2 L320.4,231.9
		L343.5,237.6 L361.5,242.3 L376.1,246.0  '/>	<use xlink:href='#gpPt3' transform='translate(120.8,170.1) scale(3.08)' color='rgb(255, 140,   0)'/>
	<use xlink:href='#gpPt3' transform='translate(176.5,182.5) scale(3.08)' color='rgb(255, 140,   0)'/>
	<use xlink:href='#gpPt3' transform='translate(232.2,203.0) scale(3.08)' color='rgb(255, 140,   0)'/>
	<use xlink:href='#gpPt3' transform='translate(264.7,214.0) scale(3.08)' color='rgb(255, 140,   0)'/>
	<use xlink:href='#gpPt3' transform='translate(287.8,221.2) scale(3.08)' color='rgb(255, 140,   0)'/>
	<use xlink:href='#gpPt3' transform='translate(320.4,231.9) scale(3.08)' color='rgb(255, 140,   0)'/>
	<use xlink:href='#gpPt3' transform='translate(343.5,237.6) scale(3.08)' color='rgb(255, 140,   0)'/>
	<use xlink:href='#gpPt3' transform='translate(361.5,242.3) scale(3.08)' color='rgb(255, 140,   0)'/>
	<use xlink:href='#gpPt3' transform='translate(376.1,246.0) scale(3.08)' color='rgb(255, 140,   0)'/>
	<use xlink:href='#gpPt3' transform='translate(418.7,209.8) scale(3.08)' color='rgb(255, 140,   0)'/>
</g>
	</g>
	<g id="gnuplot_plot_8" ><title>5122 overlapped</title>
<g fill="none" color="black" stroke="currentColor" stroke-width="1.00" stroke-linecap="butt" stroke-linejoin="miter">
	<g transform="translate(445.9,197.5)" stroke="none" fill="black" font-family="Verdana" font-size="11.00"  text-anchor="start">
		<text><tspan font-family="Verdana" >512</tspan><tspan font-family="Verdana"  font-size="8.8" dy="-5.50px">2</tspan><tspan font-family="Verdana"  font-size="11.0" dy="5.50px"> overlapped</tspan></text>
	</g>
</g>
<g fill="none" color="black" stroke="currentColor" stroke-width="1.00" stroke-linecap="butt" stroke-linejoin="miter">
	<path stroke='rgb(255, 140,   0)'  d='M399.2,193.4 L438.2,193.4 M176.5,161.9 L232.2,195.5 L264.7,211.5 L287.8,221.0 L320.4,234.9 L343.5,243.1
		L361.5,249.5 L376.1,253.2  '/>	<use xlink:href='#gpPt4' transform='translate(176.5,161.9) scale(3.08)' color='rgb(255, 140,   0)'/>
	<use xlink:href='#gpPt4' transform='translate(232.2,195.5) scale(3.08)' color='rgb(255, 140,   0)'/>
	<use xlink:href='#gpPt4' transform='translate(264.7,211.5) scale(3.08)' color='rgb(255, 140,   0)'/>
	<use xlink:href='#gpPt4' transform='translate(287.8,221.0) scale(3.08)' color='rgb(255, 140,   0)'/>
	<use xlink:href='#gpPt4' transform='translate(320.4,234.9) scale(3.08)' color='rgb(255, 140,   0)'/>
	<use xlink:href='#gpPt4' transform='translate(343.5,243.1) scale(3.08)' color='rgb(255, 140,   0)'/>
	<use xlink:href='#gpPt4' transform='translate(361.5,249.5) scale(3.08)' color='rgb(255, 140,   0)'/>
	<use xlink:href='#gpPt4' transform='translate(376.1,253.2) scale(3.08)' color='rgb(255, 140,   0)'/>
	<use xlink:href='#gpPt4' transform='translate(418.7,193.4) scale(3.08)' color='rgb(255, 140,   0)'/>
</g>
	</g>
	<g id="gnuplot_plot_9" ><title>10242 non-overlapped</title>
<g fill="none" color="black" stroke="currentColor" stroke-width="1.00" stroke-linecap="butt" stroke-linejoin="miter">
	<g transform="translate(445.9,181.1)" stroke="none" fill="black" font-family="Verdana" font-size="11.00"  text-anchor="start">
		<text><tspan font-family="Verdana" >1024</tspan><tspan font-family="Verdana"  font-size="8.8" dy="-5.50px">2</tspan><tspan font-family="Verdana"  font-size="11.0" dy="5.50px"> non-overlapped</tspan></text>
	</g>
</g>
<g fill="none" color="black" stroke="currentColor" stroke-width="1.00" stroke-linecap="butt" stroke-linejoin="miter">
	<path stroke='rgb(255,   0,   0)' stroke-dasharray='1.0,2.0'  d='M399.2,177.0 L438.2,177.0 M120.8,123.9 L176.5,130.4 L232.2,151.0 L264.7,162.5 L287.8,170.4 L320.4,182.1
		L343.5,188.7 L361.5,194.5 L376.1,198.6  '/>	<use xlink:href='#gpPt9' transform='translate(120.8,123.9) scale(3.08)' color='rgb(255,   0,   0)'/>
	<use xlink:href='#gpPt9' transform='translate(176.5,130.4) scale(3.08)' color='rgb(255,   0,   0)'/>
	<use xlink:href='#gpPt9' transform='translate(232.2,151.0) scale(3.08)' color='rgb(255,   0,   0)'/>
	<use xlink:href='#gpPt9' transform='translate(264.7,162.5) scale(3.08)' color='rgb(255,   0,   0)'/>
	<use xlink:href='#gpPt9' transform='translate(287.8,170.4) scale(3.08)' color='rgb(255,   0,   0)'/>
	<use xlink:href='#gpPt9' transform='translate(320.4,182.1) scale(3.08)' color='rgb(255,   0,   0)'/>
	<use xlink:href='#gpPt9' transform='translate(343.5,188.7) scale(3.08)' color='rgb(255,   0,   0)'/>
	<use xlink:href='#gpPt9' transform='translate(361.5,194.5) scale(3.08)' color='rgb(255,   0,   0)'/>
	<use xlink:href='#gpPt9' transform='translate(376.1,198.6) scale(3.08)' color='rgb(255,   0,   0)'/>
	<use xlink:href='#gpPt9' transform='translate(418.7,177.0) scale(3.08)' color='rgb(255,   0,   0)'/>
</g>
	</g>
	<g id="gnuplot_plot_10" ><title>10242 overlapped</title>
<g fill="none" color="black" stroke="currentColor" stroke-width="1.00" stroke-linecap="butt" stroke-linejoin="miter">
	<g transform="translate(445.9,164.7)" stroke="none" fill="black" font-family="Verdana" font-size="11.00"  text-anchor="start">
		<text><tspan font-family="Verdana" >1024</tspan><tspan font-family="Verdana"  font-size="8.8" dy="-5.50px">2</tspan><tspan font-family="Verdana"  font-size="11.0" dy="5.50px"> overlapped</tspan></text>
	</g>
</g>
<g fill="none" color="black" stroke="currentColor" stroke-width="1.00" stroke-linecap="butt" stroke-linejoin="miter">
	<path stroke='rgb(255,   0,   0)'  d='M399.2,160.6 L438.2,160.6 M176.5,109.5 L232.2,143.0 L264.7,158.7 L287.8,168.7 L320.4,182.8 L343.5,192.1
		L361.5,199.6 L376.1,204.3  '/>	<use xlink:href='#gpPt10' transform='translate(176.5,109.5) scale(3.08)' color='rgb(255,   0,   0)'/>
	<use xlink:href='#gpPt10' transform='translate(232.2,143.0) scale(3.08)' color='rgb(255,   0,   0)'/>
	<use xlink:href='#gpPt10' transform='translate(264.7,158.7) scale(3.08)' color='rgb(255,   0,   0)'/>
	<use xlink:href='#gpPt10' transform='translate(287.8,168.7) scale(3.08)' color='rgb(255,   0,   0)'/>
	<use xlink:href='#gpPt10' transform='translate(320.4,182.8) scale(3.08)' color='rgb(255,   0,   0)'/>
	<use xlink:href='#gpPt10' transform='translate(343.5,192.1) scale(3.08)' color='rgb(255,   0,   0)'/>
	<use xlink:href='#gpPt10' transform='translate(361.5,199.6) scale(3.08)' color='rgb(255,   0,   0)'/>
	<use xlink:href='#gpPt10' transform='translate(376.1,204.3) scale(3.08)' color='rgb(255,   0,   0)'/>
	<use xlink:href='#gpPt10' transform='translate(418.7,160.6) scale(3.08)' color='rgb(255,   0,   0)'/>
</g>
	</g>
<g fill="none" color="white" stroke="rgb(255,   0,   0)" stroke-width="2.00" stroke-linecap="butt" stroke-linejoin="miter">
</g>
<g fill="none" color="black" stroke="currentColor" stroke-width="2.00" stroke-linecap="butt" stroke-linejoin="miter">
</g>
<g fill="none" color="black" stroke="black" stroke-width="1.00" stroke-linecap="butt" stroke-linejoin="miter">
</g>
<g fill="none" color="black" stroke="currentColor" stroke-width="1.00" stroke-linecap="butt" stroke-linejoin="miter">
</g>
</g>
</svg>

